[2020-01-24 13:44:31] Espo.WARNING: E_WARNING: unlink(data/cache\application\metadata.php): Resource temporarily unavailable {"code":2,"message":"unlink(data/cache\\application\\metadata.php): Resource temporarily unavailable","file":"W:\\domains\\localhost\\application\\Espo\\Core\\Utils\\File\\Manager.php","line":597,"context":{"dirPath":"data/cache\\application","removeWithDir":true,"fileList":["acl","autoload.php","entityAcl.php","metadata.php","modules.php","objMetadata.php","ormMetadata.php","routes.php","services.php"],"result":1,"file":"metadata.php","fullPath":"data/cache\\application\\metadata.php"}} []
[2020-01-24 13:44:31] Espo.WARNING: E_WARNING: unlink(data/cache\application\ormMetadata.php): Resource temporarily unavailable {"code":2,"message":"unlink(data/cache\\application\\ormMetadata.php): Resource temporarily unavailable","file":"W:\\domains\\localhost\\application\\Espo\\Core\\Utils\\File\\Manager.php","line":597,"context":{"dirPath":"data/cache\\application","removeWithDir":true,"fileList":["acl","autoload.php","entityAcl.php","metadata.php","modules.php","objMetadata.php","ormMetadata.php","routes.php","services.php"],"result":0,"file":"ormMetadata.php","fullPath":"data/cache\\application\\ormMetadata.php"}} []
[2020-01-24 13:44:31] Espo.ERROR: (500) Error while clearing cache; POST /api/v1/EntityManager/action/removeLink; line: 79, file: W:\domains\localhost\application\Espo\Core\DataManager.php [] []
[2020-01-24 13:44:37] Espo.ERROR: (500) Could not delete link TestEntity.knowledgeBaseArticles. Not isCustom.; POST /api/v1/EntityManager/action/removeLink; line: 1007, file: W:\domains\localhost\application\Espo\Core\Utils\EntityManager.php [] []
[2020-01-24 13:52:32] Espo.ERROR: Json::decode():Syntax error [] []
[2020-01-24 13:52:32] Espo.EMERGENCY: Syntax error in custom\Espo\Custom\Resources\metadata\entityDefs\Preparaty.json [] []
