{
    "fields": {
        "parent": {
            "entityList": [
                "Account",
                "Contact",
                "Lead",
                "Opportunity",
                "Case",
                "Test2"
            ]
        }
    }
}